D:\rcgoods\workspace\rcgoods\tagging_collector_server\src\com\choroc\logging\tagging\server\controller\TaggingCollectorController.java
D:\rcgoods\workspace\rcgoods\tagging_collector_server\src\com\choroc\logging\tagging\server\vo\ProductsVO.java
D:\rcgoods\workspace\rcgoods\tagging_collector_server\src\com\choroc\logging\tagging\server\controller\MessageRuntimeException.java
D:\rcgoods\workspace\rcgoods\tagging_collector_server\src\com\choroc\logging\tagging\server\controller\GlobalControllerExceptionHandler.java
D:\rcgoods\workspace\rcgoods\tagging_collector_server\src\com\choroc\logging\tagging\server\vo\TaggingVO.java
